…
    setwd("C:/coursera_project/cr5wk2/FINAL")
    data <- read.csv("activity.csv", header =TRUE,sep = ',', colClasses =c("numeric","character","integer"))
    data$date <- ymd(data$date) #using lubridate package

----------------------------------------------------------------------------------------------------------
----------------------------------------------------------------------------------------------------------

### Part2: What is mean total number of steps taken per day?

Histogram of the total number of steps taken each day (excluding 'NA'
values)

    steps <- data %>%filter(!is.na(steps)) %>%group_by(date) %>%summarize(steps=sum(steps)) %>%print

    ## # A tibble: 53 x 2
    ##          date steps
    ##        <date> <dbl>
    ##  1 2012-10-02   126
    ##  2 2012-10-03 11352
    ##  3 2012-10-04 12116
    ##  4 2012-10-05 13294
    ##  5 2012-10-06 15420
    ##  6 2012-10-07 11015
    ##  7 2012-10-09 12811
    ##  8 2012-10-10  9900
    ##  9 2012-10-11 10304
    ## 10 2012-10-12 17382
    ## # ... with 43 more rows
…
    ##     steps       date interval
    ## 1 37.3826 2012-10-01        0
    ## 2 37.3826 2012-10-01        5
    ## 3 37.3826 2012-10-01       10
    ## 4 37.3826 2012-10-01       15
    ## 5 37.3826 2012-10-01       20
    ## 6 37.3826 2012-10-01       25

Histogram of the total number of steps taken each day (with replaced
'NA' values)

    steps <- data %>%filter(!is.na(steps)) %>%group_by(date) %>%summarize(steps = sum(steps)) %>%print

    ## # A tibble: 61 x 2
    ##          date    steps
    ##        <date>    <dbl>
    ##  1 2012-10-01 10766.19
    ##  2 2012-10-02   126.00
    ##  3 2012-10-03 11352.00
    ##  4 2012-10-04 12116.00
    ##  5 2012-10-05 13294.00
    ##  6 2012-10-06 15420.00
    ##  7 2012-10-07 11015.00
    ##  8 2012-10-08 10766.19
    ##  9 2012-10-09 12811.00
    ## 10 2012-10-10  9900.00
    ## # ... with 51 more rows
…
